\BOOKMARK [1][-]{section.1}{Introduction}{}% 1
\BOOKMARK [1][-]{section.2}{The Basic Subroutine; Method A}{}% 2
\BOOKMARK [2][-]{subsection.2.1}{Method}{section.2}% 3
\BOOKMARK [2][-]{subsection.2.2}{Integration Method}{section.2}% 4
\BOOKMARK [1][-]{section.3}{The Search Routine}{}% 5
\BOOKMARK [1][-]{section.4}{Comparison with Lehmer's Method}{}% 6
\BOOKMARK [1][-]{section.5}{the Basic Subroutine; Methods B and C}{}% 7
\BOOKMARK [1][-]{section.6}{Final points}{}% 8
\BOOKMARK [1][-]{section.7}{References}{}% 9
