\relax 
\providecommand\hyper@newdestlabel[2]{}
\providecommand\HyperFirstAtBeginDocument{\AtBeginDocument}
\HyperFirstAtBeginDocument{\ifx\hyper@anchor\@undefined
\global\let\oldcontentsline\contentsline
\gdef\contentsline#1#2#3#4{\oldcontentsline{#1}{#2}{#3}}
\global\let\oldnewlabel\newlabel
\gdef\newlabel#1#2{\newlabelxx{#1}#2}
\gdef\newlabelxx#1#2#3#4#5#6{\oldnewlabel{#1}{{#2}{#3}}}
\AtEndDocument{\ifx\hyper@anchor\@undefined
\let\contentsline\oldcontentsline
\let\newlabel\oldnewlabel
\fi}
\fi}
\global\let\hyper@last\relax 
\gdef\HyperFirstAtBeginDocument#1{#1}
\providecommand\HyField@AuxAddToFields[1]{}
\providecommand\HyField@AuxAddToCoFields[2]{}
\@writefile{toc}{\contentsline {section}{\numberline {1}Introduction}{1}{section.1}}
\newlabel{NumofZeros}{{1}{1}{Introduction}{equation.1.1}{}}
\@writefile{toc}{\contentsline {section}{\numberline {2}The Basic Subroutine; Method A}{2}{section.2}}
\newlabel{MethA}{{2}{2}{The Basic Subroutine; Method A}{section.2}{}}
\@writefile{toc}{\contentsline {subsection}{\numberline {2.1}Method}{2}{subsection.2.1}}
\newlabel{Case1}{{1}{2}{Method}{Item.1}{}}
\@writefile{toc}{\contentsline {subsection}{\numberline {2.2}Integration Method}{3}{subsection.2.2}}
\@writefile{toc}{\contentsline {section}{\numberline {3}The Search Routine}{3}{section.3}}
\@writefile{lof}{\contentsline {figure}{\numberline {1}{\ignorespaces Subdividing $R$ square region (a) and $R$ circle region (b)}}{4}{figure.1}}
\@writefile{lof}{\contentsline {figure}{\numberline {2}{\ignorespaces Subdividing $R$ square region avoiding crossing zeros along the original subdivision in Figure 1. (a)}}{4}{figure.2}}
\@writefile{toc}{\contentsline {section}{\numberline {4}Comparison with Lehmer's Method}{4}{section.4}}
\@writefile{toc}{\contentsline {section}{\numberline {5}the Basic Subroutine; Methods B and C}{5}{section.5}}
\@writefile{toc}{\contentsline {section}{\numberline {6}Final points}{5}{section.6}}
\@writefile{toc}{\contentsline {section}{\numberline {7}References}{6}{section.7}}
